uav_lidar_inventory
…
# Calculate centroids for each instance
centroids <- nlas_trans@data %>%
  group_by(PredInstance) %>%
  summarize(
    X = mean(X),
    Y = mean(Y),
    Z = 0,
    .groups = "drop"  # Avoid unnecessary grouping in the result
  )

# Print centroids
print(centroids)

# A tibble: 1,672 × 4
   PredInstance       X        Y     Z
          <int>   <dbl>    <dbl> <dbl>
 1            0 416780. 5346781.     0
 2            1 416795. 5346756.     0
 3            5 416689. 5346868.     0
 4            6 416692. 5346868.     0
 5            7 416686. 5346864.     0
 6            8 416684. 5346845.     0
 7           10 416685. 5346840.     0
 8           11 416683. 5346847.     0
 9           13 416683. 5346852.     0
10           15 416687. 5346852.     0
# ℹ 1,662 more rows
…
In the previous step, we got the positions. Now let’s also get the heights

# Find the highest point for each instance
tree_heights <- nlas@data %>%
  group_by(PredInstance) %>%
  slice_max(Z, n = 1) %>%  # Get the row with the maximum Z value for each instance
  ungroup()

tree_heights <- tree_heights[, c("X", "Y", "Z", "PredInstance")]

# View the results
print(tree_heights)

# A tibble: 2,077 × 4
         X        Y     Z PredInstance
     <dbl>    <dbl> <dbl>        <int>
 1 416683. 5346860.  29.7            0
 2 416756. 5346757.  42.2            1
 3 416683. 5346869.  31.9            2
 4 416688. 5346863.  24.8            4
 5 416691. 5346868.  29.1            5
 6 416692. 5346867.  12.9            6
 7 416688. 5346869.  32.7            7
 8 416685. 5346845.  25.3            8
 9 416682. 5346839.  28.9            9
10 416683. 5346843.  26.5           10
# ℹ 2,067 more rows
…
